%YAML 1.1
%TAG !u! tag:unity3d.com,2011:
--- !u!74 &7400000
AnimationClip:
  m_ObjectHideFlags: 0
  m_PrefabParentObject: {fileID: 0}
  m_PrefabInternal: {fileID: 0}
  m_Name: F1 (3)
  serializedVersion: 6
  m_Legacy: 0
  m_Compressed: 0
  m_UseHighQualityCurve: 1
  m_RotationCurves: []
  m_CompressedRotationCurves: []
  m_EulerCurves:
  - curve:
      serializedVersion: 2
      m_Curve:
      - serializedVersion: 2
        time: 0
        value: {x: 0, y: 0, z: 90}
        inSlope: {x: 0, y: 0, z: 0}
        outSlope: {x: 0, y: 0, z: 0}
        tangentMode: 0
      - serializedVersion: 2
        time: 0.16666667
        value: {x: 0, y: 0, z: 90}
        inSlope: {x: 0, y: 0, z: 0}
        outSlope: {x: 0, y: 0, z: 0}
        tangentMode: 0
      - serializedVersion: 2
        time: 0.33333334
        value: {x: 0, y: 0, z: 180}
        inSlope: {x: 0, y: 0, z: 540.00006}
        outSlope: {x: 0, y: 0, z: 540.00006}
        tangentMode: 0
      - serializedVersion: 2
        time: 0.5
        value: {x: 0, y: 0, z: 270}
        inSlope: {x: 0, y: 0, z: 0}
        outSlope: {x: 0, y: 0, z: 0}
        tangentMode: 0
      - serializedVersion: 2
        time: 0.6666667
        value: {x: 0, y: 0, z: 270}
        inSlope: {x: 0, y: 0, z: 0}
        outSlope: {x: 0, y: 0, z: 0}
        tangentMode: 0
      - serializedVersion: 2
        time: 0.8333333
        value: {x: 0, y: 0, z: 270}
        inSlope: {x: 0, y: 0, z: 0}
        outSlope: {x: 0, y: 0, z: 0}
        tangentMode: 0
      - serializedVersion: 2
        time: 1
        value: {x: 0, y: 0, z: 180}
        inSlope: {x: 0, y: 0, z: -540.00006}
        outSlope: {x: 0, y: 0, z: -540.00006}
        tangentMode: 0
      - serializedVersion: 2
        time: 1.1666666
        value: {x: 0, y: 0, z: 90}
        inSlope: {x: 0, y: 0, z: 0}
        outSlope: {x: 0, y: 0, z: 0}
        tangentMode: 0
      - serializedVersion: 2
        time: 1.3333334
        value: {x: 0, y: 0, z: 90}
        inSlope: {x: 0, y: 0, z: 0}
        outSlope: {x: 0, y: 0, z: 0}
        tangentMode: 0
      - serializedVersion: 2
        time: 1.5
        value: {x: 0, y: 0, z: 90}
        inSlope: {x: 0, y: 0, z: 0}
        outSlope: {x: 0, y: 0, z: 0}
        tangentMode: 0
      - serializedVersion: 2
        time: 1.6666666
        value: {x: 0, y: 0, z: 45}
        inSlope: {x: 0, y: 0, z: -269.99997}
        outSlope: {x: 0, y: 0, z: -269.99997}
        tangentMode: 0
      - serializedVersion: 2
        time: 1.8333334
        value: {x: 0, y: 0, z: 0}
        inSlope: {x: 0, y: 0, z: 0}
        outSlope: {x: 0, y: 0, z: 0}
        tangentMode: 0
      - serializedVersion: 2
        time: 2
        value: {x: 0, y: 0, z: 0}
        inSlope: {x: 0, y: 0, z: 0}
        outSlope: {x: 0, y: 0, z: 0}
        tangentMode: 0
      - serializedVersion: 2
        time: 2.1666667
        value: {x: 0, y: 0, z: -45}
        inSlope: {x: 0, y: 0, z: -270.00006}
        outSlope: {x: 0, y: 0, z: -270.00006}
        tangentMode: 0
      - serializedVersion: 2
        time: 2.3333333
        value: {x: 0, y: 0, z: -90}
        inSlope: {x: 0, y: 0, z: 0}
        outSlope: {x: 0, y: 0, z: 0}
        tangentMode: 0
      - serializedVersion: 2
        time: 2.5
        value: {x: 0, y: 0, z: -90}
        inSlope: {x: 0, y: 0, z: 0}
        outSlope: {x: 0, y: 0, z: 0}
        tangentMode: 0
      - serializedVersion: 2
        time: 2.6666667
        value: {x: 0, y: 0, z: -90}
        inSlope: {x: 0, y: 0, z: 0}
        outSlope: {x: 0, y: 0, z: 0}
        tangentMode: 0
      - serializedVersion: 2
        time: 2.8333333
        value: {x: 0, y: 0, z: -135}
        inSlope: {x: 0, y: 0, z: -270.00006}
        outSlope: {x: 0, y: 0, z: -270.00006}
        tangentMode: 0
      - serializedVersion: 2
        time: 3
        value: {x: 0, y: 0, z: -180}
        inSlope: {x: 0, y: 0, z: 0}
        outSlope: {x: 0, y: 0, z: 0}
        tangentMode: 0
      - serializedVersion: 2
        time: 3.1666667
        value: {x: 0, y: 0, z: -180}
        inSlope: {x: 0, y: 0, z: 0}
        outSlope: {x: 0, y: 0, z: 0}
        tangentMode: 0
      - serializedVersion: 2
        time: 3.3333333
        value: {x: 0, y: 0, z: -180}
        inSlope: {x: 0, y: 0, z: 0}
        outSlope: {x: 0, y: 0, z: 0}
        tangentMode: 0
      - serializedVersion: 2
        time: 3.5
        value: {x: 0, y: 0, z: -270}
        inSlope: {x: 0, y: 0, z: -539.99976}
        outSlope: {x: 0, y: 0, z: -539.99976}
        tangentMode: 0
      - serializedVersion: 2
        time: 3.6666667
        value: {x: 0, y: 0, z: -360}
        inSlope: {x: 0, y: 0, z: 0}
        outSlope: {x: 0, y: 0, z: 0}
        tangentMode: 0
      - serializedVersion: 2
        time: 3.8333333
        value: {x: 0, y: 0, z: -360}
        inSlope: {x: 0, y: 0, z: 0}
        outSlope: {x: 0, y: 0, z: 0}
        tangentMode: 0
      - serializedVersion: 2
        time: 4
        value: {x: 0, y: 0, z: -300}
        inSlope: {x: 0, y: 0, z: 270.00006}
        outSlope: {x: 0, y: 0, z: 270.00006}
        tangentMode: 0
      - serializedVersion: 2
        time: 4.1666665
        value: {x: 0, y: 0, z: -270}
        inSlope: {x: 0, y: 0, z: 0}
        outSlope: {x: 0, y: 0, z: 0}
        tangentMode: 0
      - serializedVersion: 2
        time: 4.3333335
        value: {x: 0, y: 0, z: -270}
        inSlope: {x: 0, y: 0, z: 0}
        outSlope: {x: 0, y: 0, z: 0}
        tangentMode: 0
      - serializedVersion: 2
        time: 4.5
        value: {x: 0, y: 0, z: -270}
        inSlope: {x: 0, y: 0, z: 0}
        outSlope: {x: 0, y: 0, z: 0}
        tangentMode: 0
      m_PreInfinity: 2
      m_PostInfinity: 2
      m_RotationOrder: 4
    path: 
  m_PositionCurves:
  - curve:
      serializedVersion: 2
      m_Curve:
      - serializedVersion: 2
        time: 0
        value: {x: -1.84, y: 0.28, z: 0}
        inSlope: {x: 0, y: 0, z: 0}
        outSlope: {x: 0, y: 0, z: 0}
        tangentMode: 0
      - serializedVersion: 2
        time: 0.16666667
        value: {x: -4.03, y: 0.28, z: 0}
        inSlope: {x: -9.029999, y: 0, z: 0}
        outSlope: {x: -9.029999, y: 0, z: 0}
        tangentMode: 0
      - serializedVersion: 2
        time: 0.33333334
        value: {x: -4.85, y: -1.04, z: 0}
        inSlope: {x: 0, y: -7.4400005, z: 0}
        outSlope: {x: 0, y: -7.4400005, z: 0}
        tangentMode: 0
      - serializedVersion: 2
        time: 0.5
        value: {x: -3.46, y: -2.2, z: 0}
        inSlope: {x: 10.679999, y: 0, z: 0}
        outSlope: {x: 10.679999, y: 0, z: 0}
        tangentMode: 0
      - serializedVersion: 2
        time: 0.6666667
        value: {x: -1.29, y: -2.2, z: 0}
        inSlope: {x: 14.7300005, y: 0, z: 0}
        outSlope: {x: 14.7300005, y: 0, z: 0}
        tangentMode: 0
      - serializedVersion: 2
        time: 0.8333333
        value: {x: 1.45, y: -2.2, z: 0}
        inSlope: {x: 9.840001, y: 0, z: 0}
        outSlope: {x: 9.840001, y: 0, z: 0}
        tangentMode: 0
      - serializedVersion: 2
        time: 1
        value: {x: 2.27, y: -3.13, z: 0}
        inSlope: {x: 0, y: -5.28, z: 0}
        outSlope: {x: 0, y: -5.28, z: 0}
        tangentMode: 0
      - serializedVersion: 2
        time: 1.1666666
        value: {x: 1.26, y: -3.96, z: 0}
        inSlope: {x: -11.189999, y: 0, z: 0}
        outSlope: {x: -11.189999, y: 0, z: 0}
        tangentMode: 0
      - serializedVersion: 2
        time: 1.3333334
        value: {x: -1.46, y: -3.96, z: 0}
        inSlope: {x: -17.159998, y: 0, z: 0}
        outSlope: {x: -17.159998, y: 0, z: 0}
        tangentMode: 0
      - serializedVersion: 2
        time: 1.5
        value: {x: -4.46, y: -4.02, z: 0}
        inSlope: {x: -13.290003, y: 0, z: 0}
        outSlope: {x: -13.290003, y: 0, z: 0}
        tangentMode: 0
      - serializedVersion: 2
        time: 1.6666666
        value: {x: -5.89, y: -3.54, z: 0}
        inSlope: {x: -4.9200034, y: 5.7599993, z: 0}
        outSlope: {x: -4.9200034, y: 5.7599993, z: 0}
        tangentMode: 0
      - serializedVersion: 2
        time: 1.8333334
        value: {x: -6.3, y: -1.71, z: 0}
        inSlope: {x: 0, y: 14.789998, z: 0}
        outSlope: {x: 0, y: 14.789998, z: 0}
        tangentMode: 0
      - serializedVersion: 2
        time: 2
        value: {x: -6.3, y: 1.39, z: 0}
        inSlope: {x: 0, y: 13.229998, z: 0}
        outSlope: {x: 0, y: 13.229998, z: 0}
        tangentMode: 0
      - serializedVersion: 2
        time: 2.1666667
        value: {x: -5.86, y: 2.7, z: 0}
        inSlope: {x: 5.280002, y: 5.4600015, z: 0}
        outSlope: {x: 5.280002, y: 5.4600015, z: 0}
        tangentMode: 0
      - serializedVersion: 2
        time: 2.3333333
        value: {x: -3.23, y: 3.21, z: 0}
        inSlope: {x: 17.610004, y: 0, z: 0}
        outSlope: {x: 17.610004, y: 0, z: 0}
        tangentMode: 0
      - serializedVersion: 2
        time: 2.5
        value: {x: 0.01, y: 3.21, z: 0}
        inSlope: {x: 21.029991, y: 0, z: 0}
        outSlope: {x: 21.029991, y: 0, z: 0}
        tangentMode: 0
      - serializedVersion: 2
        time: 2.6666667
        value: {x: 3.78, y: 3.2, z: 0}
        inSlope: {x: 17.580004, y: -0.11999991, z: 0}
        outSlope: {x: 17.580004, y: -0.11999991, z: 0}
        tangentMode: 0
      - serializedVersion: 2
        time: 2.8333333
        value: {x: 5.87, y: 2.63, z: 0}
        inSlope: {x: 4.6679997, y: -4.7820015, z: 0}
        outSlope: {x: 4.6679997, y: -4.7820015, z: 0}
        tangentMode: 0
      - serializedVersion: 2
        time: 3
        value: {x: 6.259, y: 1.606, z: 0}
        inSlope: {x: 0, y: -8.249996, z: 0}
        outSlope: {x: 0, y: -8.249996, z: 0}
        tangentMode: 0
      - serializedVersion: 2
        time: 3.1666667
        value: {x: 6.259, y: -0.12, z: 0}
        inSlope: {x: 0, y: -12.018003, z: 0}
        outSlope: {x: 0, y: -12.018003, z: 0}
        tangentMode: 0
      - serializedVersion: 2
        time: 3.3333333
        value: {x: 6.28, y: -2.4, z: 0}
        inSlope: {x: 0, y: -11.550003, z: 0}
        outSlope: {x: 0, y: -11.550003, z: 0}
        tangentMode: 0
      - serializedVersion: 2
        time: 3.5
        value: {x: 4.73, y: -3.97, z: 0}
        inSlope: {x: -8.4299965, y: 0, z: 0}
        outSlope: {x: -8.4299965, y: 0, z: 0}
        tangentMode: 0
      - serializedVersion: 2
        time: 3.6666667
        value: {x: 3.47, y: -2.59, z: 0}
        inSlope: {x: 0, y: 8.670002, z: 0}
        outSlope: {x: 0, y: 8.670002, z: 0}
        tangentMode: 0
      - serializedVersion: 2
        time: 3.8333333
        value: {x: 3.47, y: -1.08, z: 0}
        inSlope: {x: 0, y: 7.6800017, z: 0}
        outSlope: {x: 0, y: 7.6800017, z: 0}
        tangentMode: 0
      - serializedVersion: 2
        time: 4
        value: {x: 3.04, y: -0.03, z: 0}
        inSlope: {x: -5.1600018, y: 3.4799998, z: 0}
        outSlope: {x: -5.1600018, y: 3.4799998, z: 0}
        tangentMode: 0
      - serializedVersion: 2
        time: 4.1666665
        value: {x: 1.57, y: 0.26, z: 0}
        inSlope: {x: -10.169994, y: 0, z: 0}
        outSlope: {x: -10.169994, y: 0, z: 0}
        tangentMode: 0
      - serializedVersion: 2
        time: 4.3333335
        value: {x: -0.35, y: 0.26, z: 0}
        inSlope: {x: -9.902996, y: 0, z: 0}
        outSlope: {x: -9.902996, y: 0, z: 0}
        tangentMode: 0
      - serializedVersion: 2
        time: 4.5
        value: {x: -1.731, y: 0.26, z: 0}
        inSlope: {x: 0, y: 0, z: 0}
        outSlope: {x: 0, y: 0, z: 0}
        tangentMode: 0
      m_PreInfinity: 2
      m_PostInfinity: 2
      m_RotationOrder: 4
    path: 
  m_ScaleCurves: []
  m_FloatCurves: []
  m_PPtrCurves: []
  m_SampleRate: 60
  m_WrapMode: 0
  m_Bounds:
    m_Center: {x: 0, y: 0, z: 0}
    m_Extent: {x: 0, y: 0, z: 0}
  m_ClipBindingConstant:
    genericBindings:
    - serializedVersion: 2
      path: 0
      attribute: 1
      script: {fileID: 0}
      typeID: 4
      customType: 0
      isPPtrCurve: 0
    - serializedVersion: 2
      path: 0
      attribute: 4
      script: {fileID: 0}
      typeID: 4
      customType: 4
      isPPtrCurve: 0
    pptrCurveMapping: []
  m_AnimationClipSettings:
    serializedVersion: 2
    m_AdditiveReferencePoseClip: {fileID: 0}
    m_AdditiveReferencePoseTime: 0
    m_StartTime: 0
    m_StopTime: 4.5
    m_OrientationOffsetY: 0
    m_Level: 0
    m_CycleOffset: 0
    m_HasAdditiveReferencePose: 0
    m_LoopTime: 1
    m_LoopBlend: 0
    m_LoopBlendOrientation: 0
    m_LoopBlendPositionY: 0
    m_LoopBlendPositionXZ: 0
    m_KeepOriginalOrientation: 0
    m_KeepOriginalPositionY: 1
    m_KeepOriginalPositionXZ: 0
    m_HeightFromFeet: 0
    m_Mirror: 0
  m_EditorCurves:
  - curve:
      serializedVersion: 2
      m_Curve:
      - serializedVersion: 2
        time: 0
        value: -1.84
        inSlope: 0
        outSlope: 0
        tangentMode: 136
      - serializedVersion: 2
        time: 0.16666667
        value: -4.03
        inSlope: -9.029999
        outSlope: -9.029999
        tangentMode: 136
      - serializedVersion: 2
        time: 0.33333334
        value: -4.85
        inSlope: 0
        outSlope: 0
        tangentMode: 136
      - serializedVersion: 2
        time: 0.5
        value: -3.46
        inSlope: 10.679999
        outSlope: 10.679999
        tangentMode: 136
      - serializedVersion: 2
        time: 0.6666667
        value: -1.29
        inSlope: 14.7300005
        outSlope: 14.7300005
        tangentMode: 136
      - serializedVersion: 2
        time: 0.8333333
        value: 1.45
        inSlope: 9.840001
        outSlope: 9.840001
        tangentMode: 136
      - serializedVersion: 2
        time: 1
        value: 2.27
        inSlope: 0
        outSlope: 0
        tangentMode: 136
      - serializedVersion: 2
        time: 1.1666666
        value: 1.26
        inSlope: -11.189999
        outSlope: -11.189999
        tangentMode: 136
      - serializedVersion: 2
        time: 1.3333334
        value: -1.46
        inSlope: -17.159998
        outSlope: -17.159998
        tangentMode: 136
      - serializedVersion: 2
        time: 1.5
        value: -4.46
        inSlope: -13.290003
        outSlope: -13.290003
        tangentMode: 136
      - serializedVersion: 2
        time: 1.6666666
        value: -5.89
        inSlope: -4.9200034
        outSlope: -4.9200034
        tangentMode: 136
      - serializedVersion: 2
        time: 1.8333334
        value: -6.3
        inSlope: 0
        outSlope: 0
        tangentMode: 136
      - serializedVersion: 2
        time: 2
        value: -6.3
        inSlope: 0
        outSlope: 0
        tangentMode: 136
      - serializedVersion: 2
        time: 2.1666667
        value: -5.86
        inSlope: 5.280002
        outSlope: 5.280002
        tangentMode: 136
      - serializedVersion: 2
        time: 2.3333333
        value: -3.23
        inSlope: 17.610004
        outSlope: 17.610004
        tangentMode: 136
      - serializedVersion: 2
        time: 2.5
        value: 0.01
        inSlope: 21.029991
        outSlope: 21.029991
        tangentMode: 136
      - serializedVersion: 2
        time: 2.6666667
        value: 3.78
        inSlope: 17.580004
        outSlope: 17.580004
        tangentMode: 136
      - serializedVersion: 2
        time: 2.8333333
        value: 5.87
        inSlope: 4.6679997
        outSlope: 4.6679997
        tangentMode: 136
      - serializedVersion: 2
        time: 3
        value: 6.259
        inSlope: 0
        outSlope: 0
        tangentMode: 136
      - serializedVersion: 2
        time: 3.1666667
        value: 6.259
        inSlope: 0
        outSlope: 0
        tangentMode: 136
      - serializedVersion: 2
        time: 3.3333333
        value: 6.28
        inSlope: 0
        outSlope: 0
        tangentMode: 136
      - serializedVersion: 2
        time: 3.5
        value: 4.73
        inSlope: -8.4299965
        outSlope: -8.4299965
        tangentMode: 136
      - serializedVersion: 2
        time: 3.6666667
        value: 3.47
        inSlope: 0
        outSlope: 0
        tangentMode: 136
      - serializedVersion: 2
        time: 3.8333333
        value: 3.47
        inSlope: 0
        outSlope: 0
        tangentMode: 136
      - serializedVersion: 2
        time: 4
        value: 3.04
        inSlope: -5.1600018
        outSlope: -5.1600018
        tangentMode: 136
      - serializedVersion: 2
        time: 4.1666665
        value: 1.57
        inSlope: -10.169994
        outSlope: -10.169994
        tangentMode: 136
      - serializedVersion: 2
        time: 4.3333335
        value: -0.35
        inSlope: -9.902996
        outSlope: -9.902996
        tangentMode: 136
      - serializedVersion: 2
        time: 4.5
        value: -1.731
        inSlope: 0
        outSlope: 0
        tangentMode: 136
      m_PreInfinity: 2
      m_PostInfinity: 2
      m_RotationOrder: 4
    attribute: m_LocalPosition.x
    path: 
    classID: 4
    script: {fileID: 0}
  - curve:
      serializedVersion: 2
      m_Curve:
      - serializedVersion: 2
        time: 0
        value: 0.28
        inSlope: 0
        outSlope: 0
        tangentMode: 136
      - serializedVersion: 2
        time: 0.16666667
        value: 0.28
        inSlope: 0
        outSlope: 0
        tangentMode: 136
      - serializedVersion: 2
        time: 0.33333334
        value: -1.04
        inSlope: -7.4400005
        outSlope: -7.4400005
        tangentMode: 136
      - serializedVersion: 2
        time: 0.5
        value: -2.2
        inSlope: 0
        outSlope: 0
        tangentMode: 136
      - serializedVersion: 2
        time: 0.6666667
        value: -2.2
        inSlope: 0
        outSlope: 0
        tangentMode: 136
      - serializedVersion: 2
        time: 0.8333333
        value: -2.2
        inSlope: 0
        outSlope: 0
        tangentMode: 136
      - serializedVersion: 2
        time: 1
        value: -3.13
        inSlope: -5.28
        outSlope: -5.28
        tangentMode: 136
      - serializedVersion: 2
        time: 1.1666666
        value: -3.96
        inSlope: 0
        outSlope: 0
        tangentMode: 136
      - serializedVersion: 2
        time: 1.3333334
        value: -3.96
        inSlope: 0
        outSlope: 0
        tangentMode: 136
      - serializedVersion: 2
        time: 1.5
        value: -4.02
        inSlope: 0
        outSlope: 0
        tangentMode: 136
      - serializedVersion: 2
        time: 1.6666666
        value: -3.54
        inSlope: 5.7599993
        outSlope: 5.7599993
        tangentMode: 136
      - serializedVersion: 2
        time: 1.8333334
        value: -1.71
        inSlope: 14.789998
        outSlope: 14.789998
        tangentMode: 136
      - serializedVersion: 2
        time: 2
        value: 1.39
        inSlope: 13.229998
        outSlope: 13.229998
        tangentMode: 136
      - serializedVersion: 2
        time: 2.1666667
        value: 2.7
        inSlope: 5.4600015
        outSlope: 5.4600015
        tangentMode: 136
      - serializedVersion: 2
        time: 2.3333333
        value: 3.21
        inSlope: 0
        outSlope: 0
        tangentMode: 136
      - serializedVersion: 2
        time: 2.5
        value: 3.21
        inSlope: 0
        outSlope: 0
        tangentMode: 136
      - serializedVersion: 2
        time: 2.6666667
        value: 3.2
        inSlope: -0.11999991
        outSlope: -0.11999991
        tangentMode: 136
      - serializedVersion: 2
        time: 2.8333333
        value: 2.63
        inSlope: -4.7820015
        outSlope: -4.7820015
        tangentMode: 136
      - serializedVersion: 2
        time: 3
        value: 1.606
        inSlope: -8.249996
        outSlope: -8.249996
        tangentMode: 136
      - serializedVersion: 2
        time: 3.1666667
        value: -0.12
        inSlope: -12.018003
        outSlope: -12.018003
        tangentMode: 136
      - serializedVersion: 2
        time: 3.3333333
        value: -2.4
        inSlope: -11.550003
        outSlope: -11.550003
        tangentMode: 136
      - serializedVersion: 2
        time: 3.5
        value: -3.97
        inSlope: 0
        outSlope: 0
        tangentMode: 136
      - serializedVersion: 2
        time: 3.6666667
        value: -2.59
        inSlope: 8.670002
        outSlope: 8.670002
        tangentMode: 136
      - serializedVersion: 2
        time: 3.8333333
        value: -1.08
        inSlope: 7.6800017
        outSlope: 7.6800017
        tangentMode: 136
      - serializedVersion: 2
        time: 4
        value: -0.03
        inSlope: 3.4799998
        outSlope: 3.4799998
        tangentMode: 136
      - serializedVersion: 2
        time: 4.1666665
        value: 0.26
        inSlope: 0
        outSlope: 0
        tangentMode: 136
      - serializedVersion: 2
        time: 4.3333335
        value: 0.26
        inSlope: 0
        outSlope: 0
        tangentMode: 136
      - serializedVersion: 2
        time: 4.5
        value: 0.26
        inSlope: 0
        outSlope: 0
        tangentMode: 136
      m_PreInfinity: 2
      m_PostInfinity: 2
      m_RotationOrder: 4
    attribute: m_LocalPosition.y
    path: 
    classID: 4
    script: {fileID: 0}
  - curve:
      serializedVersion: 2
      m_Curve:
      - serializedVersion: 2
        time: 0
        value: 0
        inSlope: 0
        outSlope: 0
        tangentMode: 136
      - serializedVersion: 2
        time: 0.16666667
        value: 0
        inSlope: 0
        outSlope: 0
        tangentMode: 136
      - serializedVersion: 2
        time: 0.33333334
        value: 0
        inSlope: 0
        outSlope: 0
        tangentMode: 136
      - serializedVersion: 2
        time: 0.5
        value: 0
        inSlope: 0
        outSlope: 0
        tangentMode: 136
      - serializedVersion: 2
        time: 0.6666667
        value: 0
        inSlope: 0
        outSlope: 0
        tangentMode: 136
      - serializedVersion: 2
        time: 0.8333333
        value: 0
        inSlope: 0
        outSlope: 0
        tangentMode: 136
      - serializedVersion: 2
        time: 1
        value: 0
        inSlope: 0
        outSlope: 0
        tangentMode: 136
      - serializedVersion: 2
        time: 1.1666666
        value: 0
        inSlope: 0
        outSlope: 0
        tangentMode: 136
      - serializedVersion: 2
        time: 1.3333334
        value: 0
        inSlope: 0
        outSlope: 0
        tangentMode: 136
      - serializedVersion: 2
        time: 1.5
        value: 0
        inSlope: 0
        outSlope: 0
        tangentMode: 136
      - serializedVersion: 2
        time: 1.6666666
        value: 0
        inSlope: 0
        outSlope: 0
        tangentMode: 136
      - serializedVersion: 2
        time: 1.8333334
        value: 0
        inSlope: 0
        outSlope: 0
        tangentMode: 136
      - serializedVersion: 2
        time: 2
        value: 0
        inSlope: 0
        outSlope: 0
        tangentMode: 136
      - serializedVersion: 2
        time: 2.1666667
        value: 0
        inSlope: 0
        outSlope: 0
        tangentMode: 136
      - serializedVersion: 2
        time: 2.3333333
        value: 0
        inSlope: 0
        outSlope: 0
        tangentMode: 136
      - serializedVersion: 2
        time: 2.5
        value: 0
        inSlope: 0
        outSlope: 0
        tangentMode: 136
      - serializedVersion: 2
        time: 2.6666667
        value: 0
        inSlope: 0
        outSlope: 0
        tangentMode: 136
      - serializedVersion: 2
        time: 2.8333333
        value: 0
        inSlope: 0
        outSlope: 0
        tangentMode: 136
      - serializedVersion: 2
        time: 3
        value: 0
        inSlope: 0
        outSlope: 0
        tangentMode: 136
      - serializedVersion: 2
        time: 3.1666667
        value: 0
        inSlope: 0
        outSlope: 0
        tangentMode: 136
      - serializedVersion: 2
        time: 3.3333333
        value: 0
        inSlope: 0
        outSlope: 0
        tangentMode: 136
      - serializedVersion: 2
        time: 3.5
        value: 0
        inSlope: 0
        outSlope: 0
        tangentMode: 136
      - serializedVersion: 2
        time: 3.6666667
        value: 0
        inSlope: 0
        outSlope: 0
        tangentMode: 136
      - serializedVersion: 2
        time: 3.8333333
        value: 0
        inSlope: 0
        outSlope: 0
        tangentMode: 136
      - serializedVersion: 2
        time: 4
        value: 0
        inSlope: 0
        outSlope: 0
        tangentMode: 136
      - serializedVersion: 2
        time: 4.1666665
        value: 0
        inSlope: 0
        outSlope: 0
        tangentMode: 136
      - serializedVersion: 2
        time: 4.3333335
        value: 0
        inSlope: 0
        outSlope: 0
        tangentMode: 136
      - serializedVersion: 2
        time: 4.5
        value: 0
        inSlope: 0
        outSlope: 0
        tangentMode: 136
      m_PreInfinity: 2
      m_PostInfinity: 2
      m_RotationOrder: 4
    attribute: m_LocalPosition.z
    path: 
    classID: 4
    script: {fileID: 0}
  - curve:
      serializedVersion: 2
      m_Curve:
      - serializedVersion: 2
        time: 0
        value: 0
        inSlope: 0
        outSlope: 0
        tangentMode: 136
      - serializedVersion: 2
        time: 0.16666667
        value: 0
        inSlope: 0
        outSlope: 0
        tangentMode: 136
      - serializedVersion: 2
        time: 0.33333334
        value: 0
        inSlope: 0
        outSlope: 0
        tangentMode: 136
      - serializedVersion: 2
        time: 0.5
        value: 0
        inSlope: 0
        outSlope: 0
        tangentMode: 136
      - serializedVersion: 2
        time: 0.6666667
        value: 0
        inSlope: 0
        outSlope: 0
        tangentMode: 136
      - serializedVersion: 2
        time: 0.8333333
        value: 0
        inSlope: 0
        outSlope: 0
        tangentMode: 136
      - serializedVersion: 2
        time: 1
        value: 0
        inSlope: 0
        outSlope: 0
        tangentMode: 136
      - serializedVersion: 2
        time: 1.1666666
        value: 0
        inSlope: 0
        outSlope: 0
        tangentMode: 136
      - serializedVersion: 2
        time: 1.3333334
        value: 0
        inSlope: 0
        outSlope: 0
        tangentMode: 136
      - serializedVersion: 2
        time: 1.5
        value: 0
        inSlope: 0
        outSlope: 0
        tangentMode: 136
      - serializedVersion: 2
        time: 1.6666666
        value: 0
        inSlope: 0
        outSlope: 0
        tangentMode: 136
      - serializedVersion: 2
        time: 1.8333334
        value: 0
        inSlope: 0
        outSlope: 0
        tangentMode: 136
      - serializedVersion: 2
        time: 2
        value: 0
        inSlope: 0
        outSlope: 0
        tangentMode: 136
      - serializedVersion: 2
        time: 2.1666667
        value: 0
        inSlope: 0
        outSlope: 0
        tangentMode: 136
      - serializedVersion: 2
        time: 2.3333333
        value: 0
        inSlope: 0
        outSlope: 0
        tangentMode: 136
      - serializedVersion: 2
        time: 2.5
        value: 0
        inSlope: 0
        outSlope: 0
        tangentMode: 136
      - serializedVersion: 2
        time: 2.6666667
        value: 0
        inSlope: 0
        outSlope: 0
        tangentMode: 136
      - serializedVersion: 2
        time: 2.8333333
        value: 0
        inSlope: 0
        outSlope: 0
        tangentMode: 136
      - serializedVersion: 2
        time: 3
        value: 0
        inSlope: 0
        outSlope: 0
        tangentMode: 136
      - serializedVersion: 2
        time: 3.1666667
        value: 0
        inSlope: 0
        outSlope: 0
        tangentMode: 136
      - serializedVersion: 2
        time: 3.3333333
        value: 0
        inSlope: 0
        outSlope: 0
        tangentMode: 136
      - serializedVersion: 2
        time: 3.5
        value: 0
        inSlope: 0
        outSlope: 0
        tangentMode: 136
      - serializedVersion: 2
        time: 3.6666667
        value: 0
        inSlope: 0
        outSlope: 0
        tangentMode: 136
      - serializedVersion: 2
        time: 3.8333333
        value: 0
        inSlope: 0
        outSlope: 0
        tangentMode: 136
      - serializedVersion: 2
        time: 4
        value: 0
        inSlope: 0
        outSlope: 0
        tangentMode: 136
      - serializedVersion: 2
        time: 4.1666665
        value: 0
        inSlope: 0
        outSlope: 0
        tangentMode: 136
      - serializedVersion: 2
        time: 4.3333335
        value: 0
        inSlope: 0
        outSlope: 0
        tangentMode: 136
      - serializedVersion: 2
        time: 4.5
        value: 0
        inSlope: 0
        outSlope: 0
        tangentMode: 136
      m_PreInfinity: 2
      m_PostInfinity: 2
      m_RotationOrder: 4
    attribute: localEulerAnglesRaw.x
    path: 
    classID: 4
    script: {fileID: 0}
  - curve:
      serializedVersion: 2
      m_Curve:
      - serializedVersion: 2
        time: 0
        value: 0
        inSlope: 0
        outSlope: 0
        tangentMode: 136
      - serializedVersion: 2
        time: 0.16666667
        value: 0
        inSlope: 0
        outSlope: 0
        tangentMode: 136
      - serializedVersion: 2
        time: 0.33333334
        value: 0
        inSlope: 0
        outSlope: 0
        tangentMode: 136
      - serializedVersion: 2
        time: 0.5
        value: 0
        inSlope: 0
        outSlope: 0
        tangentMode: 136
      - serializedVersion: 2
        time: 0.6666667
        value: 0
        inSlope: 0
        outSlope: 0
        tangentMode: 136
      - serializedVersion: 2
        time: 0.8333333
        value: 0
        inSlope: 0
        outSlope: 0
        tangentMode: 136
      - serializedVersion: 2
        time: 1
        value: 0
        inSlope: 0
        outSlope: 0
        tangentMode: 136
      - serializedVersion: 2
        time: 1.1666666
        value: 0
        inSlope: 0
        outSlope: 0
        tangentMode: 136
      - serializedVersion: 2
        time: 1.3333334
        value: 0
        inSlope: 0
        outSlope: 0
        tangentMode: 136
      - serializedVersion: 2
        time: 1.5
        value: 0
        inSlope: 0
        outSlope: 0
        tangentMode: 136
      - serializedVersion: 2
        time: 1.6666666
        value: 0
        inSlope: 0
        outSlope: 0
        tangentMode: 136
      - serializedVersion: 2
        time: 1.8333334
        value: 0
        inSlope: 0
        outSlope: 0
        tangentMode: 136
      - serializedVersion: 2
        time: 2
        value: 0
        inSlope: 0
        outSlope: 0
        tangentMode: 136
      - serializedVersion: 2
        time: 2.1666667
        value: 0
        inSlope: 0
        outSlope: 0
        tangentMode: 136
      - serializedVersion: 2
        time: 2.3333333
        value: 0
        inSlope: 0
        outSlope: 0
        tangentMode: 136
      - serializedVersion: 2
        time: 2.5
        value: 0
        inSlope: 0
        outSlope: 0
        tangentMode: 136
      - serializedVersion: 2
        time: 2.6666667
        value: 0
        inSlope: 0
        outSlope: 0
        tangentMode: 136
      - serializedVersion: 2
        time: 2.8333333
        value: 0
        inSlope: 0
        outSlope: 0
        tangentMode: 136
      - serializedVersion: 2
        time: 3
        value: 0
        inSlope: 0
        outSlope: 0
        tangentMode: 136
      - serializedVersion: 2
        time: 3.1666667
        value: 0
        inSlope: 0
        outSlope: 0
        tangentMode: 136
      - serializedVersion: 2
        time: 3.3333333
        value: 0
        inSlope: 0
        outSlope: 0
        tangentMode: 136
      - serializedVersion: 2
        time: 3.5
        value: 0
        inSlope: 0
        outSlope: 0
        tangentMode: 136
      - serializedVersion: 2
        time: 3.6666667
        value: 0
        inSlope: 0
        outSlope: 0
        tangentMode: 136
      - serializedVersion: 2
        time: 3.8333333
        value: 0
        inSlope: 0
        outSlope: 0
        tangentMode: 136
      - serializedVersion: 2
        time: 4
        value: 0
        inSlope: 0
        outSlope: 0
        tangentMode: 136
      - serializedVersion: 2
        time: 4.1666665
        value: 0
        inSlope: 0
        outSlope: 0
        tangentMode: 136
      - serializedVersion: 2
        time: 4.3333335
        value: 0
        inSlope: 0
        outSlope: 0
        tangentMode: 136
      - serializedVersion: 2
        time: 4.5
        value: 0
        inSlope: 0
        outSlope: 0
        tangentMode: 136
      m_PreInfinity: 2
      m_PostInfinity: 2
      m_RotationOrder: 4
    attribute: localEulerAnglesRaw.y
    path: 
    classID: 4
    script: {fileID: 0}
  - curve:
      serializedVersion: 2
      m_Curve:
      - serializedVersion: 2
        time: 0
        value: 90
        inSlope: 0
        outSlope: 0
        tangentMode: 136
      - serializedVersion: 2
        time: 0.16666667
        value: 90
        inSlope: 0
        outSlope: 0
        tangentMode: 136
      - serializedVersion: 2
        time: 0.33333334
        value: 180
        inSlope: 540.00006
        outSlope: 540.00006
        tangentMode: 136
      - serializedVersion: 2
        time: 0.5
        value: 270
        inSlope: 0
        outSlope: 0
        tangentMode: 136
      - serializedVersion: 2
        time: 0.6666667
        value: 270
        inSlope: 0
        outSlope: 0
        tangentMode: 136
      - serializedVersion: 2
        time: 0.8333333
        value: 270
        inSlope: 0
        outSlope: 0
        tangentMode: 136
      - serializedVersion: 2
        time: 1
        value: 180
        inSlope: -540.00006
        outSlope: -540.00006
        tangentMode: 136
      - serializedVersion: 2
        time: 1.1666666
        value: 90
        inSlope: 0
        outSlope: 0
        tangentMode: 136
      - serializedVersion: 2
        time: 1.3333334
        value: 90
        inSlope: 0
        outSlope: 0
        tangentMode: 136
      - serializedVersion: 2
        time: 1.5
        value: 90
        inSlope: 0
        outSlope: 0
        tangentMode: 136
      - serializedVersion: 2
        time: 1.6666666
        value: 45
        inSlope: -269.99997
        outSlope: -269.99997
        tangentMode: 136
      - serializedVersion: 2
        time: 1.8333334
        value: 0
        inSlope: 0
        outSlope: 0
        tangentMode: 136
      - serializedVersion: 2
        time: 2
        value: 0
        inSlope: 0
        outSlope: 0
        tangentMode: 136
      - serializedVersion: 2
        time: 2.1666667
        value: -45
        inSlope: -270.00006
        outSlope: -270.00006
        tangentMode: 136
      - serializedVersion: 2
        time: 2.3333333
        value: -90
        inSlope: 0
        outSlope: 0
        tangentMode: 136
      - serializedVersion: 2
        time: 2.5
        value: -90
        inSlope: 0
        outSlope: 0
        tangentMode: 136
      - serializedVersion: 2
        time: 2.6666667
        value: -90
        inSlope: 0
        outSlope: 0
        tangentMode: 136
      - serializedVersion: 2
        time: 2.8333333
        value: -135
        inSlope: -270.00006
        outSlope: -270.00006
        tangentMode: 136
      - serializedVersion: 2
        time: 3
        value: -180
        inSlope: 0
        outSlope: 0
        tangentMode: 136
      - serializedVersion: 2
        time: 3.1666667
        value: -180
        inSlope: 0
        outSlope: 0
        tangentMode: 136
      - serializedVersion: 2
        time: 3.3333333
        value: -180
        inSlope: 0
        outSlope: 0
        tangentMode: 136
      - serializedVersion: 2
        time: 3.5
        value: -270
        inSlope: -539.99976
        outSlope: -539.99976
        tangentMode: 136
      - serializedVersion: 2
        time: 3.6666667
        value: -360
        inSlope: 0
        outSlope: 0
        tangentMode: 136
      - serializedVersion: 2
        time: 3.8333333
        value: -360
        inSlope: 0
        outSlope: 0
        tangentMode: 136
      - serializedVersion: 2
        time: 4
        value: -300
        inSlope: 270.00006
        outSlope: 270.00006
        tangentMode: 136
      - serializedVersion: 2
        time: 4.1666665
        value: -270
        inSlope: 0
        outSlope: 0
        tangentMode: 136
      - serializedVersion: 2
        time: 4.3333335
        value: -270
        inSlope: 0
        outSlope: 0
        tangentMode: 136
      - serializedVersion: 2
        time: 4.5
        value: -270
        inSlope: 0
        outSlope: 0
        tangentMode: 136
      m_PreInfinity: 2
      m_PostInfinity: 2
      m_RotationOrder: 4
    attribute: localEulerAnglesRaw.z
    path: 
    classID: 4
    script: {fileID: 0}
  m_EulerEditorCurves:
  - curve:
      serializedVersion: 2
      m_Curve: []
      m_PreInfinity: 2
      m_PostInfinity: 2
      m_RotationOrder: 4
    attribute: m_LocalEulerAngles.x
    path: 
    classID: 4
    script: {fileID: 0}
  - curve:
      serializedVersion: 2
      m_Curve: []
      m_PreInfinity: 2
      m_PostInfinity: 2
      m_RotationOrder: 4
    attribute: m_LocalEulerAngles.y
    path: 
    classID: 4
    script: {fileID: 0}
  - curve:
      serializedVersion: 2
      m_Curve: []
      m_PreInfinity: 2
      m_PostInfinity: 2
      m_RotationOrder: 4
    attribute: m_LocalEulerAngles.z
    path: 
    classID: 4
    script: {fileID: 0}
  m_HasGenericRootTransform: 1
  m_HasMotionFloatCurves: 0
  m_GenerateMotionCurves: 0
  m_Events: []
